40
0 0
1 0
1 1
2 0
2 1
2 2
3 1
3 2
4 0
4 2
4 3
5 3
5 4
5 5
6 0
6 1
6 2
6 3
6 5
6 6
7 0
7 4
7 5
8 0
8 2
8 5
8 7
9 4
9 5
9 9
10 1
10 3
10 5
10 6
10 7
10 9
10 10
11 0
11 2
11 6
11 8
11 9
11 11
12 0
12 1
12 2
12 3
12 4
12 5
12 6
12 8
12 10
12 11
12 12
13 4
13 5
13 6
13 7
13 10
13 12
13 13
14 1
14 3
14 5
14 7
14 10
14 12
14 13
14 14
15 2
15 3
15 7
15 8
15 11
15 12
15 14
15 15
16 2
16 10
16 16
17 0
17 1
17 2
17 3
17 5
17 6
17 8
17 10
17 11
17 12
17 15
17 16
18 1
18 4
18 5
18 6
18 8
18 9
18 11
18 13
18 14
18 16
18 17
18 18
19 1
19 5
19 7
19 8
19 9
19 11
19 12
19 15
19 16
19 17
19 19
20 2
20 3
20 5
20 9
20 10
20 13
20 15
20 16
21 2
21 5
21 7
21 8
21 9
21 10
21 11
21 12
21 16
22 0
22 1
22 5
22 7
22 8
22 10
22 12
22 13
22 14
22 15
22 17
22 19
22 21
22 22
23 1
23 3
23 4
23 5
23 6
23 7
23 12
23 13
23 18
23 20
24 1
24 2
24 3
24 4
24 9
24 10
24 11
24 14
24 17
24 19
24 22
25 7
25 8
25 9
25 10
25 13
25 15
25 17
25 18
25 21
25 23
25 24
26 0
26 1
26 2
26 3
26 4
26 7
26 11
26 13
26 15
26 16
26 19
26 20
26 22
26 25
26 26
27 1
27 5
27 8
27 15
27 19
27 20
27 22
27 23
27 25
28 0
28 1
28 7
28 10
28 11
28 13
28 14
28 15
28 16
28 22
28 23
28 24
28 25
28 27
29 1
29 4
29 9
29 11
29 13
29 14
29 15
29 18
29 20
29 21
29 23
29 27
29 29
30 1
30 2
30 4
30 7
30 10
30 12
30 13
30 14
30 15
30 16
30 18
30 22
30 23
30 25
30 26
30 28
30 29
31 0
31 2
31 3
31 4
31 5
31 6
31 7
31 9
31 12
31 13
31 18
31 22
31 23
31 25
31 31
32 1
32 4
32 5
32 6
32 7
32 9
32 10
32 11
32 13
32 14
32 15
32 16
32 17
32 18
32 20
32 21
32 22
32 23
32 26
32 30
32 32
33 0
33 4
33 5
33 8
33 10
33 12
33 16
33 18
33 20
33 23
33 26
33 28
33 30
34 2
34 3
34 6
34 7
34 8
34 10
34 11
34 12
34 13
34 14
34 16
34 18
34 21
34 23
34 24
34 26
34 31
35 2
35 4
35 5
35 6
35 10
35 11
35 17
35 19
35 22
35 24
35 25
35 26
35 28
35 29
35 31
35 32
35 33
35 34
35 35
36 1
36 2
36 3
36 4
36 5
36 7
36 8
36 10
36 11
36 12
36 15
36 17
36 18
36 19
36 22
36 23
36 24
36 25
36 26
36 27
36 31
36 32
36 33
36 35
37 2
37 6
37 8
37 12
37 14
37 16
37 18
37 19
37 20
37 22
37 26
37 32
37 35
37 37
38 0
38 1
38 2
38 3
38 5
38 6
38 7
38 8
38 9
38 10
38 13
38 14
38 15
38 16
38 17
38 20
38 22
38 24
38 27
38 28
38 30
38 34
38 36
38 37
38 38
39 3
39 5
39 7
39 9
39 10
39 11
39 12
39 15
39 16
39 18
39 20
39 21
39 22
39 23
39 24
39 27
39 28
39 29
39 32
39 33
39 34
39 35
39 37
39 38
39 39
